\relax 
\providecommand\hyper@newdestlabel[2]{}
\providecommand\HyperFirstAtBeginDocument{\AtBeginDocument}
\HyperFirstAtBeginDocument{\ifx\hyper@anchor\@undefined
\global\let\oldcontentsline\contentsline
\gdef\contentsline#1#2#3#4{\oldcontentsline{#1}{#2}{#3}}
\global\let\oldnewlabel\newlabel
\gdef\newlabel#1#2{\newlabelxx{#1}#2}
\gdef\newlabelxx#1#2#3#4#5#6{\oldnewlabel{#1}{{#2}{#3}}}
\AtEndDocument{\ifx\hyper@anchor\@undefined
\let\contentsline\oldcontentsline
\let\newlabel\oldnewlabel
\fi}
\fi}
\global\let\hyper@last\relax 
\gdef\HyperFirstAtBeginDocument#1{#1}
\providecommand\HyField@AuxAddToFields[1]{}
\providecommand\HyField@AuxAddToCoFields[2]{}
\providecommand \oddpage@label [2]{}
\@writefile{toc}{\@ifundefined {etoctocstyle}{\let \etoc@startlocaltoc \@gobble \let \etoc@settocdepth \@gobble \let \etoc@depthtag \@gobble \let \etoc@setlocaltop \@gobble }{}}
\@writefile{toc}{\contentsline {chapter}{\numberline {1}Data Structure Index}{1}{chapter.1}\protected@file@percent }
\@writefile{lof}{\addvspace {10\p@ }}
\@writefile{lot}{\addvspace {10\p@ }}
\@writefile{toc}{\contentsline {section}{\numberline {1.1}Data Structures}{1}{section.1.1}\protected@file@percent }
\@writefile{toc}{\contentsline {chapter}{\numberline {2}File Index}{3}{chapter.2}\protected@file@percent }
\@writefile{lof}{\addvspace {10\p@ }}
\@writefile{lot}{\addvspace {10\p@ }}
\@writefile{toc}{\contentsline {section}{\numberline {2.1}File List}{3}{section.2.1}\protected@file@percent }
\@writefile{toc}{\contentsline {chapter}{\numberline {3}Data Structure Documentation}{5}{chapter.3}\protected@file@percent }
\@writefile{lof}{\addvspace {10\p@ }}
\@writefile{lot}{\addvspace {10\p@ }}
\@writefile{toc}{\contentsline {section}{\numberline {3.1}dsf\discretionary {\mbox  {\scriptsize  $\hookleftarrow  $}}{}{}\_\discretionary {\mbox  {\scriptsize  $\hookleftarrow  $}}{}{}journal\discretionary {\mbox  {\scriptsize  $\hookleftarrow  $}}{}{}\_\discretionary {\mbox  {\scriptsize  $\hookleftarrow  $}}{}{}metadata\discretionary {\mbox  {\scriptsize  $\hookleftarrow  $}}{}{}\_\discretionary {\mbox  {\scriptsize  $\hookleftarrow  $}}{}{}t Struct Reference}{5}{section.3.1}\protected@file@percent }
\newlabel{structdsf__journal__metadata__t}{{3.1}{5}{dsf\+\_\+journal\+\_\+metadata\+\_\+t Struct Reference}{section.3.1}{}}
\@writefile{toc}{\contentsline {subsection}{\numberline {3.1.1}Detailed Description}{5}{subsection.3.1.1}\protected@file@percent }
\@writefile{toc}{\contentsline {subsection}{\numberline {3.1.2}Field Documentation}{5}{subsection.3.1.2}\protected@file@percent }
\newlabel{structdsf__journal__metadata__t_aa60093a9a5d5d17864cfda66c47733e3}{{3.1.2}{5}{Field Documentation}{subsection.3.1.2}{}}
\@writefile{toc}{\contentsline {subsubsection}{\numberline {3.1.2.1}crc}{5}{subsubsection.3.1.2.1}\protected@file@percent }
\newlabel{structdsf__journal__metadata__t_a4884a7ccd4130787e66aa141d47478a3}{{3.1.2.1}{5}{\texorpdfstring {crc}{crc}}{subsubsection.3.1.2.1}{}}
\@writefile{toc}{\contentsline {subsubsection}{\numberline {3.1.2.2}record\_count}{5}{subsubsection.3.1.2.2}\protected@file@percent }
\newlabel{structdsf__journal__metadata__t_ad09981dccb4b1042cc28a58ef36efd36}{{3.1.2.2}{5}{\texorpdfstring {record\_count}{record\_count}}{subsubsection.3.1.2.2}{}}
\@writefile{toc}{\contentsline {subsubsection}{\numberline {3.1.2.3}sync\_index}{6}{subsubsection.3.1.2.3}\protected@file@percent }
\newlabel{structdsf__journal__metadata__t_ab6d7b6f8c2ceaba7acda80aaf05f4899}{{3.1.2.3}{6}{\texorpdfstring {sync\_index}{sync\_index}}{subsubsection.3.1.2.3}{}}
\@writefile{toc}{\contentsline {subsubsection}{\numberline {3.1.2.4}version}{6}{subsubsection.3.1.2.4}\protected@file@percent }
\@writefile{toc}{\contentsline {section}{\numberline {3.2}dsf\discretionary {\mbox  {\scriptsize  $\hookleftarrow  $}}{}{}\_\discretionary {\mbox  {\scriptsize  $\hookleftarrow  $}}{}{}journal\discretionary {\mbox  {\scriptsize  $\hookleftarrow  $}}{}{}\_\discretionary {\mbox  {\scriptsize  $\hookleftarrow  $}}{}{}record\discretionary {\mbox  {\scriptsize  $\hookleftarrow  $}}{}{}\_\discretionary {\mbox  {\scriptsize  $\hookleftarrow  $}}{}{}table\discretionary {\mbox  {\scriptsize  $\hookleftarrow  $}}{}{}\_\discretionary {\mbox  {\scriptsize  $\hookleftarrow  $}}{}{}t Struct Reference}{6}{section.3.2}\protected@file@percent }
\newlabel{structdsf__journal__record__table__t}{{3.2}{6}{dsf\+\_\+journal\+\_\+record\+\_\+table\+\_\+t Struct Reference}{section.3.2}{}}
\@writefile{toc}{\contentsline {subsection}{\numberline {3.2.1}Detailed Description}{6}{subsection.3.2.1}\protected@file@percent }
\@writefile{toc}{\contentsline {subsection}{\numberline {3.2.2}Field Documentation}{6}{subsection.3.2.2}\protected@file@percent }
\newlabel{structdsf__journal__record__table__t_aa60093a9a5d5d17864cfda66c47733e3}{{3.2.2}{6}{Field Documentation}{subsection.3.2.2}{}}
\@writefile{toc}{\contentsline {subsubsection}{\numberline {3.2.2.1}crc}{6}{subsubsection.3.2.2.1}\protected@file@percent }
\newlabel{structdsf__journal__record__table__t_af8ec711201e1c77b12b6bab43c945127}{{3.2.2.1}{6}{\texorpdfstring {crc}{crc}}{subsubsection.3.2.2.1}{}}
\@writefile{toc}{\contentsline {subsubsection}{\numberline {3.2.2.2}record\_size}{7}{subsubsection.3.2.2.2}\protected@file@percent }
\@writefile{toc}{\contentsline {section}{\numberline {3.3}dsf\discretionary {\mbox  {\scriptsize  $\hookleftarrow  $}}{}{}\_\discretionary {\mbox  {\scriptsize  $\hookleftarrow  $}}{}{}logger\discretionary {\mbox  {\scriptsize  $\hookleftarrow  $}}{}{}\_\discretionary {\mbox  {\scriptsize  $\hookleftarrow  $}}{}{}config\discretionary {\mbox  {\scriptsize  $\hookleftarrow  $}}{}{}\_\discretionary {\mbox  {\scriptsize  $\hookleftarrow  $}}{}{}t Struct Reference}{7}{section.3.3}\protected@file@percent }
\newlabel{structdsf__logger__config__t}{{3.3}{7}{dsf\+\_\+logger\+\_\+config\+\_\+t Struct Reference}{section.3.3}{}}
\@writefile{toc}{\contentsline {subsection}{\numberline {3.3.1}Detailed Description}{7}{subsection.3.3.1}\protected@file@percent }
\@writefile{toc}{\contentsline {subsection}{\numberline {3.3.2}Field Documentation}{7}{subsection.3.3.2}\protected@file@percent }
\newlabel{structdsf__logger__config__t_ad721fc6ca6a3d6ba3bc506576622aab0}{{3.3.2}{7}{Field Documentation}{subsection.3.3.2}{}}
\@writefile{toc}{\contentsline {subsubsection}{\numberline {3.3.2.1}capacity}{7}{subsubsection.3.3.2.1}\protected@file@percent }
\newlabel{structdsf__logger__config__t_ad6bc120bffc64dfc5230863a8ba96596}{{3.3.2.1}{7}{\texorpdfstring {capacity}{capacity}}{subsubsection.3.3.2.1}{}}
\@writefile{toc}{\contentsline {subsubsection}{\numberline {3.3.2.2}data\_size}{7}{subsubsection.3.3.2.2}\protected@file@percent }
\newlabel{structdsf__logger__config__t_a613984e589ae93c7942fa5a8545c6add}{{3.3.2.2}{7}{\texorpdfstring {data\_size}{data\_size}}{subsubsection.3.3.2.2}{}}
\@writefile{toc}{\contentsline {subsubsection}{\numberline {3.3.2.3}id}{8}{subsubsection.3.3.2.3}\protected@file@percent }
\@writefile{toc}{\contentsline {section}{\numberline {3.4}dsf\discretionary {\mbox  {\scriptsize  $\hookleftarrow  $}}{}{}\_\discretionary {\mbox  {\scriptsize  $\hookleftarrow  $}}{}{}logger\discretionary {\mbox  {\scriptsize  $\hookleftarrow  $}}{}{}\_\discretionary {\mbox  {\scriptsize  $\hookleftarrow  $}}{}{}t Struct Reference}{8}{section.3.4}\protected@file@percent }
\newlabel{structdsf__logger__t}{{3.4}{8}{dsf\+\_\+logger\+\_\+t Struct Reference}{section.3.4}{}}
\@writefile{toc}{\contentsline {subsection}{\numberline {3.4.1}Detailed Description}{8}{subsection.3.4.1}\protected@file@percent }
\@writefile{toc}{\contentsline {subsection}{\numberline {3.4.2}Field Documentation}{8}{subsection.3.4.2}\protected@file@percent }
\newlabel{structdsf__logger__t_a391c992c66c3e5540265a85ec2b9216a}{{3.4.2}{8}{Field Documentation}{subsection.3.4.2}{}}
\@writefile{toc}{\contentsline {subsubsection}{\numberline {3.4.2.1}capacity}{8}{subsubsection.3.4.2.1}\protected@file@percent }
\newlabel{structdsf__logger__t_ab737b9992427f6e30af5b3846d48b66d}{{3.4.2.1}{8}{\texorpdfstring {capacity}{capacity}}{subsubsection.3.4.2.1}{}}
\@writefile{toc}{\contentsline {subsubsection}{\numberline {3.4.2.2}crc}{8}{subsubsection.3.4.2.2}\protected@file@percent }
\newlabel{structdsf__logger__t_ab670c6c21aced4765ecd6b29283f22b0}{{3.4.2.2}{8}{\texorpdfstring {crc}{crc}}{subsubsection.3.4.2.2}{}}
\@writefile{toc}{\contentsline {subsubsection}{\numberline {3.4.2.3}data\_size}{9}{subsubsection.3.4.2.3}\protected@file@percent }
\newlabel{structdsf__logger__t_a75f2d46912f41c89fe90bc41b1d23857}{{3.4.2.3}{9}{\texorpdfstring {data\_size}{data\_size}}{subsubsection.3.4.2.3}{}}
\@writefile{toc}{\contentsline {subsubsection}{\numberline {3.4.2.4}partition\_id}{9}{subsubsection.3.4.2.4}\protected@file@percent }
\newlabel{structdsf__logger__t_a7c2bcba8e09e49cd8e8dd7aa5c1aa5f4}{{3.4.2.4}{9}{\texorpdfstring {partition\_id}{partition\_id}}{subsubsection.3.4.2.4}{}}
\@writefile{toc}{\contentsline {subsubsection}{\numberline {3.4.2.5}reader}{9}{subsubsection.3.4.2.5}\protected@file@percent }
\newlabel{structdsf__logger__t_ab6d7b6f8c2ceaba7acda80aaf05f4899}{{3.4.2.5}{9}{\texorpdfstring {reader}{reader}}{subsubsection.3.4.2.5}{}}
\@writefile{toc}{\contentsline {subsubsection}{\numberline {3.4.2.6}version}{9}{subsubsection.3.4.2.6}\protected@file@percent }
\newlabel{structdsf__logger__t_ac6f31c1deb3e834d09e9b652dfb05aa6}{{3.4.2.6}{9}{\texorpdfstring {version}{version}}{subsubsection.3.4.2.6}{}}
\@writefile{toc}{\contentsline {subsubsection}{\numberline {3.4.2.7}writer}{9}{subsubsection.3.4.2.7}\protected@file@percent }
\@writefile{toc}{\contentsline {section}{\numberline {3.5}dsf\discretionary {\mbox  {\scriptsize  $\hookleftarrow  $}}{}{}\_\discretionary {\mbox  {\scriptsize  $\hookleftarrow  $}}{}{}partition\discretionary {\mbox  {\scriptsize  $\hookleftarrow  $}}{}{}\_\discretionary {\mbox  {\scriptsize  $\hookleftarrow  $}}{}{}config\discretionary {\mbox  {\scriptsize  $\hookleftarrow  $}}{}{}\_\discretionary {\mbox  {\scriptsize  $\hookleftarrow  $}}{}{}t Struct Reference}{9}{section.3.5}\protected@file@percent }
\newlabel{structdsf__partition__config__t}{{3.5}{9}{dsf\+\_\+partition\+\_\+config\+\_\+t Struct Reference}{section.3.5}{}}
\@writefile{toc}{\contentsline {subsection}{\numberline {3.5.1}Detailed Description}{10}{subsection.3.5.1}\protected@file@percent }
\@writefile{toc}{\contentsline {subsection}{\numberline {3.5.2}Field Documentation}{10}{subsection.3.5.2}\protected@file@percent }
\newlabel{structdsf__partition__config__t_a904bfc784ec019bfdea0236c862aea9b}{{3.5.2}{10}{Field Documentation}{subsection.3.5.2}{}}
\@writefile{toc}{\contentsline {subsubsection}{\numberline {3.5.2.1}base\_address}{10}{subsubsection.3.5.2.1}\protected@file@percent }
\newlabel{structdsf__partition__config__t_a82d044c70a6b84066ef895f559c43f8f}{{3.5.2.1}{10}{\texorpdfstring {base\_address}{base\_address}}{subsubsection.3.5.2.1}{}}
\@writefile{toc}{\contentsline {subsubsection}{\numberline {3.5.2.2}id}{10}{subsubsection.3.5.2.2}\protected@file@percent }
\newlabel{structdsf__partition__config__t_a854352f53b148adc24983a58a1866d66}{{3.5.2.2}{10}{\texorpdfstring {id}{id}}{subsubsection.3.5.2.2}{}}
\@writefile{toc}{\contentsline {subsubsection}{\numberline {3.5.2.3}size}{10}{subsubsection.3.5.2.3}\protected@file@percent }
\@writefile{toc}{\contentsline {section}{\numberline {3.6}dsf\discretionary {\mbox  {\scriptsize  $\hookleftarrow  $}}{}{}\_\discretionary {\mbox  {\scriptsize  $\hookleftarrow  $}}{}{}partition\discretionary {\mbox  {\scriptsize  $\hookleftarrow  $}}{}{}\_\discretionary {\mbox  {\scriptsize  $\hookleftarrow  $}}{}{}metadata\discretionary {\mbox  {\scriptsize  $\hookleftarrow  $}}{}{}\_\discretionary {\mbox  {\scriptsize  $\hookleftarrow  $}}{}{}t Struct Reference}{10}{section.3.6}\protected@file@percent }
\newlabel{structdsf__partition__metadata__t}{{3.6}{10}{dsf\+\_\+partition\+\_\+metadata\+\_\+t Struct Reference}{section.3.6}{}}
\@writefile{toc}{\contentsline {subsection}{\numberline {3.6.1}Detailed Description}{11}{subsection.3.6.1}\protected@file@percent }
\@writefile{toc}{\contentsline {subsection}{\numberline {3.6.2}Field Documentation}{11}{subsection.3.6.2}\protected@file@percent }
\newlabel{structdsf__partition__metadata__t_aa60093a9a5d5d17864cfda66c47733e3}{{3.6.2}{11}{Field Documentation}{subsection.3.6.2}{}}
\@writefile{toc}{\contentsline {subsubsection}{\numberline {3.6.2.1}crc}{11}{subsubsection.3.6.2.1}\protected@file@percent }
\newlabel{structdsf__partition__metadata__t_ad9247a006c6044c3e353db1c70d1a8be}{{3.6.2.1}{11}{\texorpdfstring {crc}{crc}}{subsubsection.3.6.2.1}{}}
\@writefile{toc}{\contentsline {subsubsection}{\numberline {3.6.2.2}records}{11}{subsubsection.3.6.2.2}\protected@file@percent }
\newlabel{structdsf__partition__metadata__t_ab6d7b6f8c2ceaba7acda80aaf05f4899}{{3.6.2.2}{11}{\texorpdfstring {records}{records}}{subsubsection.3.6.2.2}{}}
\@writefile{toc}{\contentsline {subsubsection}{\numberline {3.6.2.3}version}{11}{subsubsection.3.6.2.3}\protected@file@percent }
\@writefile{toc}{\contentsline {chapter}{\numberline {4}File Documentation}{13}{chapter.4}\protected@file@percent }
\@writefile{lof}{\addvspace {10\p@ }}
\@writefile{lot}{\addvspace {10\p@ }}
\@writefile{toc}{\contentsline {section}{\numberline {4.1}dsf\discretionary {\mbox  {\scriptsize  $\hookleftarrow  $}}{}{}\_\discretionary {\mbox  {\scriptsize  $\hookleftarrow  $}}{}{}block\discretionary {\mbox  {\scriptsize  $\hookleftarrow  $}}{}{}\_\discretionary {\mbox  {\scriptsize  $\hookleftarrow  $}}{}{}device.\discretionary {\mbox  {\scriptsize  $\hookleftarrow  $}}{}{}c}{13}{section.4.1}\protected@file@percent }
\@writefile{toc}{\contentsline {section}{\numberline {4.2}dsf\discretionary {\mbox  {\scriptsize  $\hookleftarrow  $}}{}{}\_\discretionary {\mbox  {\scriptsize  $\hookleftarrow  $}}{}{}block\discretionary {\mbox  {\scriptsize  $\hookleftarrow  $}}{}{}\_\discretionary {\mbox  {\scriptsize  $\hookleftarrow  $}}{}{}device.\discretionary {\mbox  {\scriptsize  $\hookleftarrow  $}}{}{}h File Reference}{13}{section.4.2}\protected@file@percent }
\newlabel{dsf__block__device_8h}{{4.2}{13}{dsf\+\_\+block\+\_\+device.\+h File Reference}{section.4.2}{}}
\@writefile{toc}{\contentsline {subsection}{\numberline {4.2.1}Detailed Description}{14}{subsection.4.2.1}\protected@file@percent }
\@writefile{toc}{\contentsline {subsection}{\numberline {4.2.2}Enumeration Type Documentation}{14}{subsection.4.2.2}\protected@file@percent }
\newlabel{dsf__block__device_8h_a3ae845d47f8ba03c3d0dae37c725642c}{{4.2.2}{14}{Enumeration Type Documentation}{subsection.4.2.2}{}}
\@writefile{toc}{\contentsline {subsubsection}{\numberline {4.2.2.1}dsf\_bd\_err\_t}{14}{subsubsection.4.2.2.1}\protected@file@percent }
\@writefile{toc}{\contentsline {subsection}{\numberline {4.2.3}Function Documentation}{14}{subsection.4.2.3}\protected@file@percent }
\newlabel{dsf__block__device_8h_afc88a00d13fa6cffa01eb87565528f8b}{{4.2.3}{14}{Function Documentation}{subsection.4.2.3}{}}
\@writefile{toc}{\contentsline {subsubsection}{\numberline {4.2.3.1}dsf\_bd\_deinit()}{15}{subsubsection.4.2.3.1}\protected@file@percent }
\newlabel{dsf__block__device_8h_abed6d37ff603109af541c00c75c0b00c}{{4.2.3.1}{15}{\texorpdfstring {dsf\_bd\_deinit()}{dsf\_bd\_deinit()}}{subsubsection.4.2.3.1}{}}
\@writefile{toc}{\contentsline {subsubsection}{\numberline {4.2.3.2}dsf\_bd\_get\_size()}{15}{subsubsection.4.2.3.2}\protected@file@percent }
\newlabel{dsf__block__device_8h_a0c5c59c7b72ceeb7ef527ea5ae1439dd}{{4.2.3.2}{15}{\texorpdfstring {dsf\_bd\_get\_size()}{dsf\_bd\_get\_size()}}{subsubsection.4.2.3.2}{}}
\@writefile{toc}{\contentsline {subsubsection}{\numberline {4.2.3.3}dsf\_bd\_init()}{15}{subsubsection.4.2.3.3}\protected@file@percent }
\newlabel{dsf__block__device_8h_a605201a11e307ebd27d091343b3e8348}{{4.2.3.3}{15}{\texorpdfstring {dsf\_bd\_init()}{dsf\_bd\_init()}}{subsubsection.4.2.3.3}{}}
\@writefile{toc}{\contentsline {subsubsection}{\numberline {4.2.3.4}dsf\_bd\_read()}{15}{subsubsection.4.2.3.4}\protected@file@percent }
\gdef \LT@i {\LT@entry 
    {3}{36.79999pt}\LT@entry 
    {3}{59.9681pt}\LT@entry 
    {3}{227.34273pt}}
\gdef \LT@ii {\LT@entry 
    {3}{30.79999pt}\LT@entry 
    {3}{59.9681pt}\LT@entry 
    {3}{225.47955pt}}
\newlabel{dsf__block__device_8h_a11ff33365198ae94c67d6d8aa3690503}{{4.2.3.4}{16}{\texorpdfstring {dsf\_bd\_read()}{dsf\_bd\_read()}}{table.4.1}{}}
\@writefile{toc}{\contentsline {subsubsection}{\numberline {4.2.3.5}dsf\_bd\_write()}{16}{subsubsection.4.2.3.5}\protected@file@percent }
\@writefile{toc}{\contentsline {section}{\numberline {4.3}dsf\discretionary {\mbox  {\scriptsize  $\hookleftarrow  $}}{}{}\_\discretionary {\mbox  {\scriptsize  $\hookleftarrow  $}}{}{}block\discretionary {\mbox  {\scriptsize  $\hookleftarrow  $}}{}{}\_\discretionary {\mbox  {\scriptsize  $\hookleftarrow  $}}{}{}device.\discretionary {\mbox  {\scriptsize  $\hookleftarrow  $}}{}{}h}{16}{section.4.3}\protected@file@percent }
\@writefile{toc}{\contentsline {section}{\numberline {4.4}dsf\discretionary {\mbox  {\scriptsize  $\hookleftarrow  $}}{}{}\_\discretionary {\mbox  {\scriptsize  $\hookleftarrow  $}}{}{}logger.\discretionary {\mbox  {\scriptsize  $\hookleftarrow  $}}{}{}c File Reference}{17}{section.4.4}\protected@file@percent }
\newlabel{dsf__logger_8c}{{4.4}{17}{dsf\+\_\+logger.\+c File Reference}{section.4.4}{}}
\@writefile{toc}{\contentsline {subsection}{\numberline {4.4.1}Detailed Description}{17}{subsection.4.4.1}\protected@file@percent }
\@writefile{toc}{\contentsline {section}{\numberline {4.5}dsf\discretionary {\mbox  {\scriptsize  $\hookleftarrow  $}}{}{}\_\discretionary {\mbox  {\scriptsize  $\hookleftarrow  $}}{}{}logger.\discretionary {\mbox  {\scriptsize  $\hookleftarrow  $}}{}{}c}{18}{section.4.5}\protected@file@percent }
\@writefile{toc}{\contentsline {section}{\numberline {4.6}dsf\discretionary {\mbox  {\scriptsize  $\hookleftarrow  $}}{}{}\_\discretionary {\mbox  {\scriptsize  $\hookleftarrow  $}}{}{}logger.\discretionary {\mbox  {\scriptsize  $\hookleftarrow  $}}{}{}h File Reference}{18}{section.4.6}\protected@file@percent }
\newlabel{dsf__logger_8h}{{4.6}{18}{dsf\+\_\+logger.\+h File Reference}{section.4.6}{}}
\@writefile{toc}{\contentsline {subsection}{\numberline {4.6.1}Detailed Description}{19}{subsection.4.6.1}\protected@file@percent }
\@writefile{toc}{\contentsline {subsection}{\numberline {4.6.2}Typedef Documentation}{19}{subsection.4.6.2}\protected@file@percent }
\newlabel{dsf__logger_8h_a68f15c94ea8bf38d0e3f60cfc9d5d974}{{4.6.2}{19}{Typedef Documentation}{subsection.4.6.2}{}}
\gdef \LT@iii {\LT@entry 
    {3}{36.79999pt}\LT@entry 
    {3}{52.96611pt}\LT@entry 
    {3}{108.93204pt}}
\@writefile{toc}{\contentsline {subsubsection}{\numberline {4.6.2.1}dsf\_logger\_id\_t}{20}{subsubsection.4.6.2.1}\protected@file@percent }
\@writefile{toc}{\contentsline {subsection}{\numberline {4.6.3}Enumeration Type Documentation}{20}{subsection.4.6.3}\protected@file@percent }
\newlabel{dsf__logger_8h_a38da8e14019971ebbb7a934d6af27a33}{{4.6.3}{20}{Enumeration Type Documentation}{subsection.4.6.3}{}}
\@writefile{toc}{\contentsline {subsubsection}{\numberline {4.6.3.1}dsf\_logger\_err\_t}{20}{subsubsection.4.6.3.1}\protected@file@percent }
\@writefile{toc}{\contentsline {subsection}{\numberline {4.6.4}Function Documentation}{20}{subsection.4.6.4}\protected@file@percent }
\newlabel{dsf__logger_8h_aa9e22ace9d9a95a339b7d16e311e94cf}{{4.6.4}{20}{Function Documentation}{subsection.4.6.4}{}}
\@writefile{toc}{\contentsline {subsubsection}{\numberline {4.6.4.1}dsf\_logger\_count()}{20}{subsubsection.4.6.4.1}\protected@file@percent }
\newlabel{dsf__logger_8h_aad86e5569d6fb5f0275c9176224997fc}{{4.6.4.1}{20}{\texorpdfstring {dsf\_logger\_count()}{dsf\_logger\_count()}}{table.4.3}{}}
\@writefile{toc}{\contentsline {subsubsection}{\numberline {4.6.4.2}dsf\_logger\_create()}{21}{subsubsection.4.6.4.2}\protected@file@percent }
\gdef \LT@iv {\LT@entry 
    {3}{30.79999pt}\LT@entry 
    {3}{51.96725pt}\LT@entry 
    {3}{140.3595pt}}
\gdef \LT@v {\LT@entry 
    {3}{36.79999pt}\LT@entry 
    {3}{52.96611pt}\LT@entry 
    {3}{106.3129pt}}
\newlabel{dsf__logger_8h_ab7bc2cf7f27e40474a5da63dcf18d924}{{4.6.4.2}{22}{\texorpdfstring {dsf\_logger\_create()}{dsf\_logger\_create()}}{table.4.4}{}}
\@writefile{toc}{\contentsline {subsubsection}{\numberline {4.6.4.3}dsf\_logger\_read()}{22}{subsubsection.4.6.4.3}\protected@file@percent }
\newlabel{dsf__logger_8h_ad9109d7b5d27a455ab68a86280a7a2c6}{{4.6.4.3}{22}{\texorpdfstring {dsf\_logger\_read()}{dsf\_logger\_read()}}{table.4.5}{}}
\@writefile{toc}{\contentsline {subsubsection}{\numberline {4.6.4.4}dsf\_logger\_reset()}{22}{subsubsection.4.6.4.4}\protected@file@percent }
\gdef \LT@vi {\LT@entry 
    {3}{30.79999pt}\LT@entry 
    {3}{52.96611pt}\LT@entry 
    {3}{51.91817pt}}
\gdef \LT@vii {\LT@entry 
    {3}{30.79999pt}\LT@entry 
    {3}{52.96611pt}\LT@entry 
    {3}{51.91817pt}}
\gdef \LT@viii {\LT@entry 
    {3}{30.79999pt}\LT@entry 
    {3}{52.96611pt}\LT@entry 
    {3}{121.3156pt}}
\newlabel{dsf__logger_8h_a0dbd487c435b88d1647133690653bf9f}{{4.6.4.4}{23}{\texorpdfstring {dsf\_logger\_reset()}{dsf\_logger\_reset()}}{table.4.6}{}}
\@writefile{toc}{\contentsline {subsubsection}{\numberline {4.6.4.5}dsf\_logger\_sync()}{23}{subsubsection.4.6.4.5}\protected@file@percent }
\newlabel{dsf__logger_8h_ae3a1468b16c6954f725fbf2cd8b98910}{{4.6.4.5}{23}{\texorpdfstring {dsf\_logger\_sync()}{dsf\_logger\_sync()}}{table.4.7}{}}
\@writefile{toc}{\contentsline {subsubsection}{\numberline {4.6.4.6}dsf\_logger\_write()}{23}{subsubsection.4.6.4.6}\protected@file@percent }
\@writefile{toc}{\contentsline {section}{\numberline {4.7}dsf\discretionary {\mbox  {\scriptsize  $\hookleftarrow  $}}{}{}\_\discretionary {\mbox  {\scriptsize  $\hookleftarrow  $}}{}{}logger.\discretionary {\mbox  {\scriptsize  $\hookleftarrow  $}}{}{}h}{24}{section.4.7}\protected@file@percent }
\@writefile{toc}{\contentsline {section}{\numberline {4.8}dsf\discretionary {\mbox  {\scriptsize  $\hookleftarrow  $}}{}{}\_\discretionary {\mbox  {\scriptsize  $\hookleftarrow  $}}{}{}partitioner.\discretionary {\mbox  {\scriptsize  $\hookleftarrow  $}}{}{}c File Reference}{24}{section.4.8}\protected@file@percent }
\newlabel{dsf__partitioner_8c}{{4.8}{24}{dsf\+\_\+partitioner.\+c File Reference}{section.4.8}{}}
\@writefile{toc}{\contentsline {subsection}{\numberline {4.8.1}Detailed Description}{25}{subsection.4.8.1}\protected@file@percent }
\@writefile{toc}{\contentsline {subsection}{\numberline {4.8.2}Macro Definition Documentation}{25}{subsection.4.8.2}\protected@file@percent }
\newlabel{dsf__partitioner_8c_a95715bff5e101f4e9c97685c0edee1aa}{{4.8.2}{25}{Macro Definition Documentation}{subsection.4.8.2}{}}
\@writefile{toc}{\contentsline {subsubsection}{\numberline {4.8.2.1}DSF\_MAX\_JOURNAL\_RECORD}{26}{subsubsection.4.8.2.1}\protected@file@percent }
\newlabel{dsf__partitioner_8c_abd1e7a4aec7f795efc95ab40d24573cd}{{4.8.2.1}{26}{\texorpdfstring {DSF\_MAX\_JOURNAL\_RECORD}{DSF\_MAX\_JOURNAL\_RECORD}}{subsubsection.4.8.2.1}{}}
\@writefile{toc}{\contentsline {subsubsection}{\numberline {4.8.2.2}DSF\_MAX\_PARTITION}{26}{subsubsection.4.8.2.2}\protected@file@percent }
\@writefile{toc}{\contentsline {subsection}{\numberline {4.8.3}Typedef Documentation}{26}{subsection.4.8.3}\protected@file@percent }
\newlabel{dsf__partitioner_8c_a2298d72997ef08edc61484c1bd990958}{{4.8.3}{26}{Typedef Documentation}{subsection.4.8.3}{}}
\@writefile{toc}{\contentsline {subsubsection}{\numberline {4.8.3.1}dsf\_partition\_record\_t}{26}{subsubsection.4.8.3.1}\protected@file@percent }
\@writefile{toc}{\contentsline {section}{\numberline {4.9}dsf\discretionary {\mbox  {\scriptsize  $\hookleftarrow  $}}{}{}\_\discretionary {\mbox  {\scriptsize  $\hookleftarrow  $}}{}{}partitioner.\discretionary {\mbox  {\scriptsize  $\hookleftarrow  $}}{}{}c}{26}{section.4.9}\protected@file@percent }
\@writefile{toc}{\contentsline {section}{\numberline {4.10}dsf\discretionary {\mbox  {\scriptsize  $\hookleftarrow  $}}{}{}\_\discretionary {\mbox  {\scriptsize  $\hookleftarrow  $}}{}{}partitioner.\discretionary {\mbox  {\scriptsize  $\hookleftarrow  $}}{}{}h File Reference}{27}{section.4.10}\protected@file@percent }
\newlabel{dsf__partitioner_8h}{{4.10}{27}{dsf\+\_\+partitioner.\+h File Reference}{section.4.10}{}}
\@writefile{toc}{\contentsline {subsection}{\numberline {4.10.1}Detailed Description}{28}{subsection.4.10.1}\protected@file@percent }
\@writefile{toc}{\contentsline {subsection}{\numberline {4.10.2}Typedef Documentation}{28}{subsection.4.10.2}\protected@file@percent }
\newlabel{dsf__partitioner_8h_a594df67234bc79ce4b6e62879a381b6c}{{4.10.2}{28}{Typedef Documentation}{subsection.4.10.2}{}}
\@writefile{toc}{\contentsline {subsubsection}{\numberline {4.10.2.1}dsf\_partition\_id\_t}{28}{subsubsection.4.10.2.1}\protected@file@percent }
\@writefile{toc}{\contentsline {subsection}{\numberline {4.10.3}Enumeration Type Documentation}{28}{subsection.4.10.3}\protected@file@percent }
\newlabel{dsf__partitioner_8h_a2dd5cb943e6775f2a265393e441783cf}{{4.10.3}{28}{Enumeration Type Documentation}{subsection.4.10.3}{}}
\gdef \LT@ix {\LT@entry 
    {3}{34.30963pt}\LT@entry 
    {3}{12.4pt}}
\gdef \LT@x {\LT@entry 
    {3}{34.30963pt}\LT@entry 
    {3}{12.4pt}}
\@writefile{toc}{\contentsline {subsubsection}{\numberline {4.10.3.1}dsf\_partition\_err\_t}{29}{subsubsection.4.10.3.1}\protected@file@percent }
\@writefile{toc}{\contentsline {subsection}{\numberline {4.10.4}Function Documentation}{29}{subsection.4.10.4}\protected@file@percent }
\newlabel{dsf__partitioner_8h_a9b7a1e21caa0706c7316b65eb88dc4b8}{{4.10.4}{29}{Function Documentation}{subsection.4.10.4}{}}
\@writefile{toc}{\contentsline {subsubsection}{\numberline {4.10.4.1}dsf\_journal\_start()}{29}{subsubsection.4.10.4.1}\protected@file@percent }
\newlabel{dsf__partitioner_8h_a845719ea1a2b0984e1e3a6111aaebc31}{{4.10.4.1}{29}{\texorpdfstring {dsf\_journal\_start()}{dsf\_journal\_start()}}{table.4.9}{}}
\@writefile{toc}{\contentsline {subsubsection}{\numberline {4.10.4.2}dsf\_journal\_stop()}{29}{subsubsection.4.10.4.2}\protected@file@percent }
\gdef \LT@xi {\LT@entry 
    {3}{30.79999pt}\LT@entry 
    {3}{51.96725pt}\LT@entry 
    {3}{147.72115pt}}
\gdef \LT@xii {\LT@entry 
    {3}{34.30963pt}\LT@entry 
    {3}{12.4pt}}
\newlabel{dsf__partitioner_8h_a383c0d019b17495917cae910d57bd57f}{{4.10.4.2}{30}{\texorpdfstring {dsf\_journal\_stop()}{dsf\_journal\_stop()}}{table.4.10}{}}
\@writefile{toc}{\contentsline {subsubsection}{\numberline {4.10.4.3}dsf\_partition\_create()}{30}{subsubsection.4.10.4.3}\protected@file@percent }
\newlabel{dsf__partitioner_8h_a7773b313ed9ae5f996078d6f83c006f1}{{4.10.4.3}{30}{\texorpdfstring {dsf\_partition\_create()}{dsf\_partition\_create()}}{table.4.11}{}}
\@writefile{toc}{\contentsline {subsubsection}{\numberline {4.10.4.4}dsf\_partition\_format()}{30}{subsubsection.4.10.4.4}\protected@file@percent }
\newlabel{dsf__partitioner_8h_af981bb43f617ed81750bb71bf3e98646}{{4.10.4.4}{30}{\texorpdfstring {dsf\_partition\_format()}{dsf\_partition\_format()}}{table.4.12}{}}
\gdef \LT@xiii {\LT@entry 
    {3}{36.79999pt}\LT@entry 
    {3}{52.47107pt}\LT@entry 
    {3}{365.97305pt}}
\@writefile{toc}{\contentsline {subsubsection}{\numberline {4.10.4.5}dsf\_partition\_init()}{31}{subsubsection.4.10.4.5}\protected@file@percent }
\newlabel{dsf__partitioner_8h_a77a7a8dc7fe549b1b741fc619cca9f2c}{{4.10.4.5}{31}{\texorpdfstring {dsf\_partition\_init()}{dsf\_partition\_init()}}{subsubsection.4.10.4.5}{}}
\@writefile{toc}{\contentsline {subsubsection}{\numberline {4.10.4.6}dsf\_partition\_read()}{31}{subsubsection.4.10.4.6}\protected@file@percent }
\newlabel{dsf__partitioner_8h_a35cd1eb938a7045ee8260a4792d6ed17}{{4.10.4.6}{31}{\texorpdfstring {dsf\_partition\_read()}{dsf\_partition\_read()}}{table.4.13}{}}
\@writefile{toc}{\contentsline {subsubsection}{\numberline {4.10.4.7}dsf\_partition\_write()}{31}{subsubsection.4.10.4.7}\protected@file@percent }
\gdef \LT@xiv {\LT@entry 
    {3}{30.79999pt}\LT@entry 
    {3}{52.47107pt}\LT@entry 
    {3}{338.33636pt}}
\@writefile{toc}{\contentsline {section}{\numberline {4.11}dsf\discretionary {\mbox  {\scriptsize  $\hookleftarrow  $}}{}{}\_\discretionary {\mbox  {\scriptsize  $\hookleftarrow  $}}{}{}partitioner.\discretionary {\mbox  {\scriptsize  $\hookleftarrow  $}}{}{}h}{32}{section.4.11}\protected@file@percent }
\@writefile{toc}{\contentsline {chapter}{\numberline {5}Example Documentation}{33}{chapter.5}\protected@file@percent }
\@writefile{lof}{\addvspace {10\p@ }}
\@writefile{lot}{\addvspace {10\p@ }}
\@writefile{toc}{\contentsline {section}{\numberline {5.1}example\discretionary {\mbox  {\scriptsize  $\hookleftarrow  $}}{}{}\_\discretionary {\mbox  {\scriptsize  $\hookleftarrow  $}}{}{}logger.\discretionary {\mbox  {\scriptsize  $\hookleftarrow  $}}{}{}c}{33}{section.5.1}\protected@file@percent }
\@writefile{toc}{\contentsline {section}{\numberline {5.2}example\discretionary {\mbox  {\scriptsize  $\hookleftarrow  $}}{}{}\_\discretionary {\mbox  {\scriptsize  $\hookleftarrow  $}}{}{}partitioner.\discretionary {\mbox  {\scriptsize  $\hookleftarrow  $}}{}{}c}{34}{section.5.2}\protected@file@percent }
\@writefile{toc}{\contentsline {chapter}{Index}{35}{section*.21}\protected@file@percent }
\gdef \@abspage@last{42}
